^C:\USERS\HP\SOURCE\REPOS\HELLOWORLD\DEBUG\HELLOWORLD.OBJ
C:\USERS\HP\SOURCE\REPOS\HELLOWORLD\DEBUG\HELLOWORLD.EXE
C:\USERS\HP\SOURCE\REPOS\HELLOWORLD\DEBUG\HELLOWORLD.ILK
C:\USERS\HP\SOURCE\REPOS\HELLOWORLD\DEBUG\HELLOWORLD.PDB
